Salmon Fisheries in Alaska
…
cleaned_alaska <- na.omit(alaska)

# Calculate averages
averaged_alaska <- cleaned_alaska %>%
  group_by(year, species_name) %>%
  summarize(avg_number_of_fish = mean(number_of_fish_estimated))

`summarise()` has grouped output by 'year'. You can override using the
`.groups` argument.

# View the resulting dataframe
print(averaged_alaska)

# A tibble: 195 × 3
# Groups:   year [39]
    year species_name   avg_number_of_fish
   <dbl> <chr>                       <dbl>
 1  1985 Chinook Salmon             65642.
 2  1985 Chum Salmon               962695.
 3  1985 Coho Salmon               574801.
 4  1985 Pink Salmon             10037325.
 5  1985 Sockeye Salmon           4330781.
 6  1986 Chinook Salmon             56124 
 7  1986 Chum Salmon              1137216.
 8  1986 Coho Salmon               629374.
 9  1986 Pink Salmon              9659110 
10  1986 Sockeye Salmon           3578588.
# ℹ 185 more rows
…
